module gitlab.com/logging-system

go 1.20

require (
	github.com/pelletier/go-toml v1.9.5
	go.mongodb.org/mongo-driver v1.11.3
)

require (
	github.com/google/uuid v1.3.0 // indirect
	gopkg.in/go-playground/assert.v1 v1.2.1 // indirect
)

require (
	github.com/go-playground/locales v0.14.1 // indirect
	github.com/go-playground/universal-translator v0.18.1 // indirect
	github.com/go-playground/validator v9.31.0+incompatible
	github.com/golang/snappy v0.0.1 // indirect
	github.com/klauspost/compress v1.13.6 // indirect
	github.com/leodido/go-urn v1.2.2 // indirect
	github.com/montanaflynn/stats v0.0.0-20171201202039-1bf9dbcd8cbe // indirect
	github.com/pkg/errors v0.9.1 // indirect
	github.com/xdg-go/pbkdf2 v1.0.0 // indirect
	github.com/xdg-go/scram v1.1.1 // indirect
	github.com/xdg-go/stringprep v1.0.3 // indirect
	github.com/youmark/pkcs8 v0.0.0-20181117223130-1be2e3e5546d // indirect
	golang.org/x/crypto v0.7.0 // indirect
	golang.org/x/sync v0.0.0-20210220032951-036812b2e83c // indirect
	golang.org/x/text v0.8.0 // indirect
)
